rel_time,message_count,message_size,frequency,delta_t,implementation
0.0,0,4096,1000,1.0,python
1.0,766,4096,1000,1.0,python
2.0,783,4096,1000,1.0,python
3.0,775,4096,1000,1.0,python
4.0,787,4096,1000,1.0,python
5.0,777,4096,1000,1.0,python
6.0,784,4096,1000,1.0,python
7.0,780,4096,1000,1.0,python
8.0,774,4096,1000,1.0,python
9.0,783,4096,1000,1.0,python
10.0,777,4096,1000,1.0,python
11.0,768,4096,1000,1.0,python
12.0,782,4096,1000,1.0,python
13.0,778,4096,1000,1.0,python
14.0,782,4096,1000,1.0,python
15.0,766,4096,1000,1.0,python
16.0,770,4096,1000,1.0,python
17.0,778,4096,1000,1.0,python
18.0,785,4096,1000,1.0,python
19.0,764,4096,1000,1.0,python
20.0,772,4096,1000,1.0,python
21.0,775,4096,1000,1.0,python
22.0,781,4096,1000,1.0,python
23.0,777,4096,1000,1.0,python
24.0,769,4096,1000,1.0,python
25.0,779,4096,1000,1.0,python
26.0,780,4096,1000,1.0,python
27.0,787,4096,1000,1.0,python
28.0,778,4096,1000,1.0,python
29.0,767,4096,1000,1.0,python
30.0,761,4096,1000,1.0,python
0.0,0,8192,1000,1.0,python
1.0,972,8192,1000,1.0,python
2.0,989,8192,1000,1.0,python
3.0,976,8192,1000,1.0,python
4.0,993,8192,1000,1.0,python
5.0,978,8192,1000,1.0,python
6.0,979,8192,1000,1.0,python
7.0,974,8192,1000,1.0,python
8.0,983,8192,1000,1.0,python
9.0,982,8192,1000,1.0,python
10.0,984,8192,1000,1.0,python
11.0,991,8192,1000,1.0,python
12.0,976,8192,1000,1.0,python
13.0,980,8192,1000,1.0,python
14.0,973,8192,1000,1.0,python
15.0,984,8192,1000,1.0,python
16.0,994,8192,1000,1.0,python
17.0,996,8192,1000,1.0,python
18.0,980,8192,1000,1.0,python
19.0,997,8192,1000,1.0,python
20.0,976,8192,1000,1.0,python
21.0,959,8192,1000,1.0,python
22.0,993,8192,1000,1.0,python
23.0,989,8192,1000,1.0,python
24.0,995,8192,1000,1.0,python
25.0,1001,8192,1000,1.0,python
26.0,984,8192,1000,1.0,python
27.0,981,8192,1000,1.0,python
28.0,980,8192,1000,1.0,python
29.0,977,8192,1000,1.0,python
30.0,955,8192,1000,1.0,python
0.0,0,16384,1000,1.0,python
1.0,724,16384,1000,1.0,python
2.0,751,16384,1000,1.0,python
3.0,738,16384,1000,1.0,python
4.0,696,16384,1000,1.0,python
5.0,702,16384,1000,1.0,python
6.0,705,16384,1000,1.0,python
7.0,701,16384,1000,1.0,python
8.0,705,16384,1000,1.0,python
9.0,700,16384,1000,1.0,python
10.0,722,16384,1000,1.0,python
11.0,732,16384,1000,1.0,python
12.0,764,16384,1000,1.0,python
13.0,680,16384,1000,1.0,python
14.0,696,16384,1000,1.0,python
15.0,714,16384,1000,1.0,python
16.0,738,16384,1000,1.0,python
17.0,739,16384,1000,1.0,python
18.0,695,16384,1000,1.0,python
19.0,666,16384,1000,1.0,python
20.0,740,16384,1000,1.0,python
21.0,672,16384,1000,1.0,python
22.0,696,16384,1000,1.0,python
23.0,714,16384,1000,1.0,python
24.0,696,16384,1000,1.0,python
25.0,525,16384,1000,1.0,python
26.0,402,16384,1000,1.0,python
27.0,396,16384,1000,1.0,python
28.0,384,16384,1000,1.0,python
29.0,522,16384,1000,1.0,python
30.0,642,16384,1000,1.0,python
0.0,0,32768,1000,1.0,python
1.0,391,32768,1000,1.0,python
2.0,415,32768,1000,1.0,python
3.0,392,32768,1000,1.0,python
4.0,404,32768,1000,1.0,python
5.0,388,32768,1000,1.0,python
6.0,400,32768,1000,1.0,python
7.0,432,32768,1000,1.0,python
8.0,408,32768,1000,1.0,python
9.0,436,32768,1000,1.0,python
10.0,400,32768,1000,1.0,python
11.0,416,32768,1000,1.0,python
12.0,409,32768,1000,1.0,python
13.0,419,32768,1000,1.0,python
14.0,427,32768,1000,1.0,python
15.0,418,32768,1000,1.0,python
16.0,446,32768,1000,1.0,python
17.0,410,32768,1000,1.0,python
18.0,384,32768,1000,1.0,python
19.0,411,32768,1000,1.0,python
20.0,401,32768,1000,1.0,python
21.0,287,32768,1000,1.0,python
22.0,228,32768,1000,1.0,python
23.0,240,32768,1000,1.0,python
24.0,230,32768,1000,1.0,python
25.0,288,32768,1000,1.0,python
26.0,354,32768,1000,1.0,python
27.0,354,32768,1000,1.0,python
28.0,352,32768,1000,1.0,python
29.0,388,32768,1000,1.0,python
30.0,401,32768,1000,1.0,python
0.0,0,65536,1000,1.0,python
1.0,228,65536,1000,1.0,python
2.0,213,65536,1000,1.0,python
3.0,219,65536,1000,1.0,python
4.0,229,65536,1000,1.0,python
5.0,220,65536,1000,1.0,python
6.0,218,65536,1000,1.0,python
7.0,225,65536,1000,1.0,python
8.0,225,65536,1000,1.0,python
9.0,228,65536,1000,1.0,python
10.0,221,65536,1000,1.0,python
11.0,224,65536,1000,1.0,python
12.0,223,65536,1000,1.0,python
13.0,212,65536,1000,1.0,python
14.0,210,65536,1000,1.0,python
15.0,205,65536,1000,1.0,python
16.0,211,65536,1000,1.0,python
17.0,216,65536,1000,1.0,python
18.0,211,65536,1000,1.0,python
19.0,231,65536,1000,1.0,python
20.0,229,65536,1000,1.0,python
21.0,223,65536,1000,1.0,python
22.0,228,65536,1000,1.0,python
23.0,224,65536,1000,1.0,python
24.0,221,65536,1000,1.0,python
25.0,131,65536,1000,1.0,python
26.0,127,65536,1000,1.0,python
27.0,125,65536,1000,1.0,python
28.0,118,65536,1000,1.0,python
29.0,184,65536,1000,1.0,python
30.0,191,65536,1000,1.0,python
31.0,1,65536,1000,1.0,python
0.0,0,131072,1000,1.0,python
1.0,119,131072,1000,1.0,python
2.0,117,131072,1000,1.0,python
3.0,122,131072,1000,1.0,python
4.0,120,131072,1000,1.0,python
5.0,124,131072,1000,1.0,python
6.0,121,131072,1000,1.0,python
7.0,125,131072,1000,1.0,python
8.0,124,131072,1000,1.0,python
9.0,122,131072,1000,1.0,python
10.0,117,131072,1000,1.0,python
11.0,110,131072,1000,1.0,python
12.0,118,131072,1000,1.0,python
13.0,124,131072,1000,1.0,python
14.0,115,131072,1000,1.0,python
15.0,118,131072,1000,1.0,python
16.0,116,131072,1000,1.0,python
17.0,122,131072,1000,1.0,python
18.0,122,131072,1000,1.0,python
19.0,118,131072,1000,1.0,python
20.0,125,131072,1000,1.0,python
21.0,120,131072,1000,1.0,python
22.0,113,131072,1000,1.0,python
23.0,118,131072,1000,1.0,python
24.0,108,131072,1000,1.0,python
25.0,121,131072,1000,1.0,python
26.0,121,131072,1000,1.0,python
27.0,123,131072,1000,1.0,python
28.0,123,131072,1000,1.0,python
29.0,117,131072,1000,1.0,python
30.0,109,131072,1000,1.0,python
0.0,0,262144,1000,1.0,python
1.0,36,262144,1000,1.0,python
2.0,34,262144,1000,1.0,python
3.0,32,262144,1000,1.0,python
4.0,37,262144,1000,1.0,python
5.0,51,262144,1000,1.0,python
6.0,51,262144,1000,1.0,python
7.0,52,262144,1000,1.0,python
8.0,53,262144,1000,1.0,python
9.0,58,262144,1000,1.0,python
10.0,60,262144,1000,1.0,python
11.0,58,262144,1000,1.0,python
12.0,57,262144,1000,1.0,python
13.0,54,262144,1000,1.0,python
14.0,53,262144,1000,1.0,python
15.0,54,262144,1000,1.0,python
16.0,48,262144,1000,1.0,python
17.0,30,262144,1000,1.0,python
18.0,28,262144,1000,1.0,python
19.0,30,262144,1000,1.0,python
20.0,31,262144,1000,1.0,python
21.0,34,262144,1000,1.0,python
22.0,35,262144,1000,1.0,python
23.0,36,262144,1000,1.0,python
24.0,36,262144,1000,1.0,python
25.0,54,262144,1000,1.0,python
26.0,55,262144,1000,1.0,python
27.0,55,262144,1000,1.0,python
28.0,55,262144,1000,1.0,python
29.0,60,262144,1000,1.0,python
30.0,61,262144,1000,1.0,python
0.0,0,524288,1000,1.0,python
1.0,26,524288,1000,1.0,python
2.0,25,524288,1000,1.0,python
3.0,26,524288,1000,1.0,python
4.0,25,524288,1000,1.0,python
5.0,29,524288,1000,1.0,python
6.0,29,524288,1000,1.0,python
7.0,29,524288,1000,1.0,python
8.0,29,524288,1000,1.0,python
9.0,31,524288,1000,1.0,python
10.0,30,524288,1000,1.0,python
11.0,30,524288,1000,1.0,python
12.0,29,524288,1000,1.0,python
13.0,28,524288,1000,1.0,python
14.0,29,524288,1000,1.0,python
15.0,30,524288,1000,1.0,python
16.0,25,524288,1000,1.0,python
17.0,17,524288,1000,1.0,python
18.0,16,524288,1000,1.0,python
19.0,17,524288,1000,1.0,python
20.0,19,524288,1000,1.0,python
21.0,26,524288,1000,1.0,python
22.0,27,524288,1000,1.0,python
23.0,27,524288,1000,1.0,python
24.0,27,524288,1000,1.0,python
25.0,29,524288,1000,1.0,python
26.0,29,524288,1000,1.0,python
27.0,28,524288,1000,1.0,python
28.0,28,524288,1000,1.0,python
29.0,25,524288,1000,1.0,python
30.0,26,524288,1000,1.0,python
0.0,0,1048576,1000,1.0,python
1.0,16,1048576,1000,1.0,python
2.0,14,1048576,1000,1.0,python
3.0,15,1048576,1000,1.0,python
4.0,14,1048576,1000,1.0,python
5.0,13,1048576,1000,1.0,python
6.0,14,1048576,1000,1.0,python
7.0,13,1048576,1000,1.0,python
8.0,15,1048576,1000,1.0,python
9.0,15,1048576,1000,1.0,python
10.0,14,1048576,1000,1.0,python
11.0,15,1048576,1000,1.0,python
12.0,14,1048576,1000,1.0,python
13.0,14,1048576,1000,1.0,python
14.0,13,1048576,1000,1.0,python
15.0,14,1048576,1000,1.0,python
16.0,15,1048576,1000,1.0,python
17.0,13,1048576,1000,1.0,python
18.0,17,1048576,1000,1.0,python
19.0,15,1048576,1000,1.0,python
20.0,14,1048576,1000,1.0,python
21.0,13,1048576,1000,1.0,python
22.0,13,1048576,1000,1.0,python
23.0,13,1048576,1000,1.0,python
24.0,15,1048576,1000,1.0,python
25.0,14,1048576,1000,1.0,python
26.0,16,1048576,1000,1.0,python
27.0,15,1048576,1000,1.0,python
28.0,14,1048576,1000,1.0,python
29.0,16,1048576,1000,1.0,python
30.0,16,1048576,1000,1.0,python
0.0,0,2097152,1000,1.0,python
1.0,8,2097152,1000,1.0,python
2.0,8,2097152,1000,1.0,python
3.0,9,2097152,1000,1.0,python
4.0,7,2097152,1000,1.0,python
5.0,8,2097152,1000,1.0,python
6.0,6,2097152,1000,1.0,python
7.0,9,2097152,1000,1.0,python
8.0,5,2097152,1000,1.0,python
9.0,5,2097152,1000,1.0,python
10.0,4,2097152,1000,1.0,python
11.0,4,2097152,1000,1.0,python
12.0,6,2097152,1000,1.0,python
13.0,7,2097152,1000,1.0,python
14.0,8,2097152,1000,1.0,python
15.0,6,2097152,1000,1.0,python
16.0,9,2097152,1000,1.0,python
17.0,7,2097152,1000,1.0,python
18.0,7,2097152,1000,1.0,python
19.0,8,2097152,1000,1.0,python
20.0,7,2097152,1000,1.0,python
21.0,7,2097152,1000,1.0,python
22.0,6,2097152,1000,1.0,python
23.0,7,2097152,1000,1.0,python
24.0,8,2097152,1000,1.0,python
25.0,8,2097152,1000,1.0,python
26.0,7,2097152,1000,1.0,python
27.0,8,2097152,1000,1.0,python
28.0,7,2097152,1000,1.0,python
29.0,8,2097152,1000,1.0,python
30.0,7,2097152,1000,1.0,python
0.0,0,4194304,1000,1.0,python
1.0,4,4194304,1000,1.0,python
2.0,4,4194304,1000,1.0,python
3.0,3,4194304,1000,1.0,python
4.0,2,4194304,1000,1.0,python
5.0,3,4194304,1000,1.0,python
6.0,3,4194304,1000,1.0,python
7.0,3,4194304,1000,1.0,python
8.0,3,4194304,1000,1.0,python
9.0,4,4194304,1000,1.0,python
10.0,2,4194304,1000,1.0,python
11.0,4,4194304,1000,1.0,python
12.0,3,4194304,1000,1.0,python
13.0,4,4194304,1000,1.0,python
14.0,3,4194304,1000,1.0,python
15.0,4,4194304,1000,1.0,python
16.0,4,4194304,1000,1.0,python
17.0,3,4194304,1000,1.0,python
18.0,2,4194304,1000,1.0,python
19.0,4,4194304,1000,1.0,python
20.0,4,4194304,1000,1.0,python
21.0,4,4194304,1000,1.0,python
22.0,3,4194304,1000,1.0,python
23.0,4,4194304,1000,1.0,python
24.0,4,4194304,1000,1.0,python
25.0,4,4194304,1000,1.0,python
26.0,4,4194304,1000,1.0,python
27.0,3,4194304,1000,1.0,python
28.0,5,4194304,1000,1.0,python
29.0,3,4194304,1000,1.0,python
30.0,4,4194304,1000,1.0,python
0.0,0,8388608,1000,1.0,python
1.0,3,8388608,1000,1.0,python
2.0,2,8388608,1000,1.0,python
3.0,2,8388608,1000,1.0,python
4.0,2,8388608,1000,1.0,python
5.0,2,8388608,1000,1.0,python
6.0,2,8388608,1000,1.0,python
7.0,2,8388608,1000,1.0,python
8.0,2,8388608,1000,1.0,python
9.0,2,8388608,1000,1.0,python
10.0,2,8388608,1000,1.0,python
11.0,2,8388608,1000,1.0,python
12.0,2,8388608,1000,1.0,python
13.0,2,8388608,1000,1.0,python
14.0,2,8388608,1000,1.0,python
15.0,2,8388608,1000,1.0,python
16.0,2,8388608,1000,1.0,python
17.0,2,8388608,1000,1.0,python
18.0,2,8388608,1000,1.0,python
19.0,2,8388608,1000,1.0,python
20.0,2,8388608,1000,1.0,python
21.0,2,8388608,1000,1.0,python
22.0,2,8388608,1000,1.0,python
23.0,2,8388608,1000,1.0,python
24.0,1,8388608,1000,1.0,python
25.0,2,8388608,1000,1.0,python
26.0,2,8388608,1000,1.0,python
27.0,2,8388608,1000,1.0,python
28.0,2,8388608,1000,1.0,python
29.0,2,8388608,1000,1.0,python
30.0,2,8388608,1000,1.0,python
0.0,0,16777216,1000,1.0,python
1.0,1,16777216,1000,1.0,python
2.0,1,16777216,1000,1.0,python
3.0,1,16777216,1000,1.0,python
4.0,1,16777216,1000,1.0,python
5.0,1,16777216,1000,1.0,python
6.0,1,16777216,1000,1.0,python
7.0,0,16777216,1000,1.0,python
8.0,1,16777216,1000,1.0,python
9.0,1,16777216,1000,1.0,python
10.0,1,16777216,1000,1.0,python
11.0,1,16777216,1000,1.0,python
12.0,1,16777216,1000,1.0,python
13.0,2,16777216,1000,1.0,python
14.0,1,16777216,1000,1.0,python
15.0,1,16777216,1000,1.0,python
16.0,0,16777216,1000,1.0,python
17.0,1,16777216,1000,1.0,python
18.0,1,16777216,1000,1.0,python
19.0,1,16777216,1000,1.0,python
20.0,2,16777216,1000,1.0,python
21.0,0,16777216,1000,1.0,python
22.0,1,16777216,1000,1.0,python
23.0,1,16777216,1000,1.0,python
24.0,1,16777216,1000,1.0,python
25.0,1,16777216,1000,1.0,python
26.0,1,16777216,1000,1.0,python
27.0,1,16777216,1000,1.0,python
28.0,1,16777216,1000,1.0,python
29.0,1,16777216,1000,1.0,python
30.0,1,16777216,1000,1.0,python
0.0,0,33554432,1000,1.0,python
1.0,1,33554432,1000,1.0,python
2.0,0,33554432,1000,1.0,python
3.0,1,33554432,1000,1.0,python
4.0,0,33554432,1000,1.0,python
5.0,0,33554432,1000,1.0,python
6.0,1,33554432,1000,1.0,python
7.0,1,33554432,1000,1.0,python
8.0,1,33554432,1000,1.0,python
9.0,0,33554432,1000,1.0,python
10.0,1,33554432,1000,1.0,python
11.0,0,33554432,1000,1.0,python
12.0,1,33554432,1000,1.0,python
13.0,0,33554432,1000,1.0,python
14.0,1,33554432,1000,1.0,python
15.0,0,33554432,1000,1.0,python
16.0,0,33554432,1000,1.0,python
17.0,1,33554432,1000,1.0,python
18.0,0,33554432,1000,1.0,python
19.0,1,33554432,1000,1.0,python
20.0,0,33554432,1000,1.0,python
21.0,1,33554432,1000,1.0,python
22.0,0,33554432,1000,1.0,python
23.0,0,33554432,1000,1.0,python
24.0,1,33554432,1000,1.0,python
25.0,0,33554432,1000,1.0,python
26.0,0,33554432,1000,1.0,python
27.0,1,33554432,1000,1.0,python
28.0,0,33554432,1000,1.0,python
29.0,1,33554432,1000,1.0,python
30.0,0,33554432,1000,1.0,python
0.0,0,67108864,1000,1.0,python
1.0,1,67108864,1000,1.0,python
2.0,0,67108864,1000,1.0,python
3.0,0,67108864,1000,1.0,python
4.0,0,67108864,1000,1.0,python
5.0,0,67108864,1000,1.0,python
6.0,1,67108864,1000,1.0,python
7.0,0,67108864,1000,1.0,python
8.0,0,67108864,1000,1.0,python
9.0,0,67108864,1000,1.0,python
10.0,1,67108864,1000,1.0,python
11.0,0,67108864,1000,1.0,python
12.0,0,67108864,1000,1.0,python
13.0,0,67108864,1000,1.0,python
14.0,1,67108864,1000,1.0,python
15.0,0,67108864,1000,1.0,python
16.0,0,67108864,1000,1.0,python
17.0,0,67108864,1000,1.0,python
18.0,1,67108864,1000,1.0,python
19.0,0,67108864,1000,1.0,python
20.0,0,67108864,1000,1.0,python
21.0,0,67108864,1000,1.0,python
22.0,1,67108864,1000,1.0,python
23.0,0,67108864,1000,1.0,python
24.0,0,67108864,1000,1.0,python
25.0,0,67108864,1000,1.0,python
26.0,1,67108864,1000,1.0,python
27.0,0,67108864,1000,1.0,python
28.0,0,67108864,1000,1.0,python
29.0,1,67108864,1000,1.0,python
30.0,0,67108864,1000,1.0,python
0.0,0,134217728,1000,1.0,python
1.0,1,134217728,1000,1.0,python
2.0,0,134217728,1000,1.0,python
3.0,0,134217728,1000,1.0,python
4.0,0,134217728,1000,1.0,python
5.0,0,134217728,1000,1.0,python
6.0,0,134217728,1000,1.0,python
7.0,0,134217728,1000,1.0,python
8.0,1,134217728,1000,1.0,python
9.0,0,134217728,1000,1.0,python
10.0,0,134217728,1000,1.0,python
11.0,0,134217728,1000,1.0,python
12.0,0,134217728,1000,1.0,python
13.0,0,134217728,1000,1.0,python
14.0,0,134217728,1000,1.0,python
15.0,0,134217728,1000,1.0,python
16.0,1,134217728,1000,1.0,python
17.0,0,134217728,1000,1.0,python
18.0,0,134217728,1000,1.0,python
19.0,0,134217728,1000,1.0,python
20.0,0,134217728,1000,1.0,python
21.0,0,134217728,1000,1.0,python
22.0,0,134217728,1000,1.0,python
23.0,0,134217728,1000,1.0,python
24.0,0,134217728,1000,1.0,python
25.0,0,134217728,1000,1.0,python
26.0,0,134217728,1000,1.0,python
27.0,1,134217728,1000,1.0,python
28.0,0,134217728,1000,1.0,python
29.0,0,134217728,1000,1.0,python
30.0,0,134217728,1000,1.0,python
0.0,0,268435456,1000,1.0,python
1.0,1,268435456,1000,1.0,python
2.0,0,268435456,1000,1.0,python
3.0,0,268435456,1000,1.0,python
4.0,0,268435456,1000,1.0,python
5.0,0,268435456,1000,1.0,python
6.0,0,268435456,1000,1.0,python
7.0,0,268435456,1000,1.0,python
8.0,0,268435456,1000,1.0,python
9.0,0,268435456,1000,1.0,python
10.0,0,268435456,1000,1.0,python
11.0,0,268435456,1000,1.0,python
12.0,0,268435456,1000,1.0,python
13.0,0,268435456,1000,1.0,python
14.0,0,268435456,1000,1.0,python
15.0,0,268435456,1000,1.0,python
16.0,0,268435456,1000,1.0,python
17.0,0,268435456,1000,1.0,python
18.0,0,268435456,1000,1.0,python
19.0,0,268435456,1000,1.0,python
20.0,0,268435456,1000,1.0,python
21.0,0,268435456,1000,1.0,python
22.0,0,268435456,1000,1.0,python
23.0,0,268435456,1000,1.0,python
24.0,0,268435456,1000,1.0,python
25.0,0,268435456,1000,1.0,python
26.0,0,268435456,1000,1.0,python
27.0,0,268435456,1000,1.0,python
28.0,0,268435456,1000,1.0,python
29.0,0,268435456,1000,1.0,python
30.0,0,268435456,1000,1.0,python
0.0,0,4096,1000,1.0,c++
1.0,730,4096,1000,1.0,c++
2.0,732,4096,1000,1.0,c++
3.0,726,4096,1000,1.0,c++
4.0,732,4096,1000,1.0,c++
5.0,717,4096,1000,1.0,c++
6.0,737,4096,1000,1.0,c++
7.0,718,4096,1000,1.0,c++
8.0,734,4096,1000,1.0,c++
9.0,726,4096,1000,1.0,c++
10.0,734,4096,1000,1.0,c++
11.0,738,4096,1000,1.0,c++
12.0,721,4096,1000,1.0,c++
13.0,735,4096,1000,1.0,c++
14.0,717,4096,1000,1.0,c++
15.0,736,4096,1000,1.0,c++
16.0,720,4096,1000,1.0,c++
17.0,735,4096,1000,1.0,c++
18.0,717,4096,1000,1.0,c++
19.0,731,4096,1000,1.0,c++
20.0,731,4096,1000,1.0,c++
21.0,720,4096,1000,1.0,c++
22.0,734,4096,1000,1.0,c++
23.0,721,4096,1000,1.0,c++
24.0,730,4096,1000,1.0,c++
25.0,720,4096,1000,1.0,c++
26.0,731,4096,1000,1.0,c++
27.0,719,4096,1000,1.0,c++
28.0,739,4096,1000,1.0,c++
29.0,734,4096,1000,1.0,c++
30.0,655,4096,1000,1.0,c++
0.0,0,8192,1000,1.0,c++
1.0,1000,8192,1000,1.0,c++
2.0,1000,8192,1000,1.0,c++
3.0,1000,8192,1000,1.0,c++
4.0,1000,8192,1000,1.0,c++
5.0,1000,8192,1000,1.0,c++
6.0,1000,8192,1000,1.0,c++
7.0,1000,8192,1000,1.0,c++
8.0,1000,8192,1000,1.0,c++
9.0,1000,8192,1000,1.0,c++
10.0,1000,8192,1000,1.0,c++
11.0,1001,8192,1000,1.0,c++
12.0,999,8192,1000,1.0,c++
13.0,1000,8192,1000,1.0,c++
14.0,1001,8192,1000,1.0,c++
15.0,999,8192,1000,1.0,c++
16.0,1000,8192,1000,1.0,c++
17.0,1000,8192,1000,1.0,c++
18.0,1000,8192,1000,1.0,c++
19.0,1000,8192,1000,1.0,c++
20.0,1000,8192,1000,1.0,c++
21.0,1000,8192,1000,1.0,c++
22.0,1000,8192,1000,1.0,c++
23.0,1000,8192,1000,1.0,c++
24.0,1000,8192,1000,1.0,c++
25.0,1000,8192,1000,1.0,c++
26.0,991,8192,1000,1.0,c++
27.0,1000,8192,1000,1.0,c++
28.0,1000,8192,1000,1.0,c++
29.0,1000,8192,1000,1.0,c++
30.0,840,8192,1000,1.0,c++
0.0,0,16384,1000,1.0,c++
1.0,999,16384,1000,1.0,c++
2.0,1001,16384,1000,1.0,c++
3.0,997,16384,1000,1.0,c++
4.0,1002,16384,1000,1.0,c++
5.0,1001,16384,1000,1.0,c++
6.0,997,16384,1000,1.0,c++
7.0,1003,16384,1000,1.0,c++
8.0,998,16384,1000,1.0,c++
9.0,1003,16384,1000,1.0,c++
10.0,997,16384,1000,1.0,c++
11.0,1003,16384,1000,1.0,c++
12.0,996,16384,1000,1.0,c++
13.0,1002,16384,1000,1.0,c++
14.0,1001,16384,1000,1.0,c++
15.0,997,16384,1000,1.0,c++
16.0,1002,16384,1000,1.0,c++
17.0,1001,16384,1000,1.0,c++
18.0,997,16384,1000,1.0,c++
19.0,1002,16384,1000,1.0,c++
20.0,1001,16384,1000,1.0,c++
21.0,998,16384,1000,1.0,c++
22.0,1001,16384,1000,1.0,c++
23.0,997,16384,1000,1.0,c++
24.0,1002,16384,1000,1.0,c++
25.0,996,16384,1000,1.0,c++
26.0,1002,16384,1000,1.0,c++
27.0,1001,16384,1000,1.0,c++
28.0,997,16384,1000,1.0,c++
29.0,1002,16384,1000,1.0,c++
30.0,822,16384,1000,1.0,c++
0.0,0,32768,1000,1.0,c++
1.0,1001,32768,1000,1.0,c++
2.0,1000,32768,1000,1.0,c++
3.0,1001,32768,1000,1.0,c++
4.0,1000,32768,1000,1.0,c++
5.0,1000,32768,1000,1.0,c++
6.0,1000,32768,1000,1.0,c++
7.0,999,32768,1000,1.0,c++
8.0,1001,32768,1000,1.0,c++
9.0,1000,32768,1000,1.0,c++
10.0,1000,32768,1000,1.0,c++
11.0,1000,32768,1000,1.0,c++
12.0,1000,32768,1000,1.0,c++
13.0,1000,32768,1000,1.0,c++
14.0,1000,32768,1000,1.0,c++
15.0,1000,32768,1000,1.0,c++
16.0,1000,32768,1000,1.0,c++
17.0,1000,32768,1000,1.0,c++
18.0,1000,32768,1000,1.0,c++
19.0,999,32768,1000,1.0,c++
20.0,1001,32768,1000,1.0,c++
21.0,1000,32768,1000,1.0,c++
22.0,1000,32768,1000,1.0,c++
23.0,999,32768,1000,1.0,c++
24.0,1001,32768,1000,1.0,c++
25.0,1000,32768,1000,1.0,c++
26.0,1000,32768,1000,1.0,c++
27.0,1000,32768,1000,1.0,c++
28.0,999,32768,1000,1.0,c++
29.0,1001,32768,1000,1.0,c++
30.0,895,32768,1000,1.0,c++
0.0,0,65536,1000,1.0,c++
1.0,1000,65536,1000,1.0,c++
2.0,1000,65536,1000,1.0,c++
3.0,1001,65536,1000,1.0,c++
4.0,999,65536,1000,1.0,c++
5.0,1000,65536,1000,1.0,c++
6.0,1001,65536,1000,1.0,c++
7.0,1000,65536,1000,1.0,c++
8.0,999,65536,1000,1.0,c++
9.0,1001,65536,1000,1.0,c++
10.0,999,65536,1000,1.0,c++
11.0,1001,65536,1000,1.0,c++
12.0,1000,65536,1000,1.0,c++
13.0,1000,65536,1000,1.0,c++
14.0,999,65536,1000,1.0,c++
15.0,1000,65536,1000,1.0,c++
16.0,1000,65536,1000,1.0,c++
17.0,1001,65536,1000,1.0,c++
18.0,998,65536,1000,1.0,c++
19.0,1000,65536,1000,1.0,c++
20.0,1000,65536,1000,1.0,c++
21.0,1001,65536,1000,1.0,c++
22.0,999,65536,1000,1.0,c++
23.0,1000,65536,1000,1.0,c++
24.0,1000,65536,1000,1.0,c++
25.0,1000,65536,1000,1.0,c++
26.0,1001,65536,1000,1.0,c++
27.0,1000,65536,1000,1.0,c++
28.0,999,65536,1000,1.0,c++
29.0,1000,65536,1000,1.0,c++
30.0,866,65536,1000,1.0,c++
0.0,0,131072,1000,1.0,c++
1.0,1000,131072,1000,1.0,c++
2.0,1000,131072,1000,1.0,c++
3.0,1000,131072,1000,1.0,c++
4.0,1000,131072,1000,1.0,c++
5.0,1000,131072,1000,1.0,c++
6.0,1000,131072,1000,1.0,c++
7.0,1000,131072,1000,1.0,c++
8.0,1000,131072,1000,1.0,c++
9.0,1000,131072,1000,1.0,c++
10.0,1000,131072,1000,1.0,c++
11.0,1000,131072,1000,1.0,c++
12.0,1000,131072,1000,1.0,c++
13.0,1000,131072,1000,1.0,c++
14.0,1000,131072,1000,1.0,c++
15.0,1000,131072,1000,1.0,c++
16.0,1000,131072,1000,1.0,c++
17.0,1000,131072,1000,1.0,c++
18.0,1000,131072,1000,1.0,c++
19.0,1000,131072,1000,1.0,c++
20.0,1000,131072,1000,1.0,c++
21.0,1000,131072,1000,1.0,c++
22.0,1000,131072,1000,1.0,c++
23.0,1000,131072,1000,1.0,c++
24.0,1000,131072,1000,1.0,c++
25.0,1000,131072,1000,1.0,c++
26.0,1000,131072,1000,1.0,c++
27.0,1000,131072,1000,1.0,c++
28.0,1000,131072,1000,1.0,c++
29.0,1000,131072,1000,1.0,c++
30.0,866,131072,1000,1.0,c++
0.0,0,262144,1000,1.0,c++
1.0,1001,262144,1000,1.0,c++
2.0,999,262144,1000,1.0,c++
3.0,1001,262144,1000,1.0,c++
4.0,999,262144,1000,1.0,c++
5.0,1001,262144,1000,1.0,c++
6.0,999,262144,1000,1.0,c++
7.0,1000,262144,1000,1.0,c++
8.0,1000,262144,1000,1.0,c++
9.0,999,262144,1000,1.0,c++
10.0,1000,262144,1000,1.0,c++
11.0,1000,262144,1000,1.0,c++
12.0,997,262144,1000,1.0,c++
13.0,997,262144,1000,1.0,c++
14.0,999,262144,1000,1.0,c++
15.0,999,262144,1000,1.0,c++
16.0,1000,262144,1000,1.0,c++
17.0,1000,262144,1000,1.0,c++
18.0,1000,262144,1000,1.0,c++
19.0,1000,262144,1000,1.0,c++
20.0,1000,262144,1000,1.0,c++
21.0,1000,262144,1000,1.0,c++
22.0,1000,262144,1000,1.0,c++
23.0,1000,262144,1000,1.0,c++
24.0,1000,262144,1000,1.0,c++
25.0,1000,262144,1000,1.0,c++
26.0,1000,262144,1000,1.0,c++
27.0,1000,262144,1000,1.0,c++
28.0,1000,262144,1000,1.0,c++
29.0,998,262144,1000,1.0,c++
30.0,890,262144,1000,1.0,c++
0.0,0,524288,1000,1.0,c++
1.0,1001,524288,1000,1.0,c++
2.0,1000,524288,1000,1.0,c++
3.0,1000,524288,1000,1.0,c++
4.0,999,524288,1000,1.0,c++
5.0,1000,524288,1000,1.0,c++
6.0,1000,524288,1000,1.0,c++
7.0,1000,524288,1000,1.0,c++
8.0,1000,524288,1000,1.0,c++
9.0,1000,524288,1000,1.0,c++
10.0,1000,524288,1000,1.0,c++
11.0,999,524288,1000,1.0,c++
12.0,991,524288,1000,1.0,c++
13.0,999,524288,1000,1.0,c++
14.0,1000,524288,1000,1.0,c++
15.0,996,524288,1000,1.0,c++
16.0,995,524288,1000,1.0,c++
17.0,1000,524288,1000,1.0,c++
18.0,1000,524288,1000,1.0,c++
19.0,1000,524288,1000,1.0,c++
20.0,1000,524288,1000,1.0,c++
21.0,1000,524288,1000,1.0,c++
22.0,1000,524288,1000,1.0,c++
23.0,1000,524288,1000,1.0,c++
24.0,1000,524288,1000,1.0,c++
25.0,1000,524288,1000,1.0,c++
26.0,1000,524288,1000,1.0,c++
27.0,995,524288,1000,1.0,c++
28.0,994,524288,1000,1.0,c++
29.0,1000,524288,1000,1.0,c++
30.0,848,524288,1000,1.0,c++
0.0,0,1048576,1000,1.0,c++
1.0,957,1048576,1000,1.0,c++
2.0,957,1048576,1000,1.0,c++
3.0,948,1048576,1000,1.0,c++
4.0,958,1048576,1000,1.0,c++
5.0,955,1048576,1000,1.0,c++
6.0,947,1048576,1000,1.0,c++
7.0,951,1048576,1000,1.0,c++
8.0,852,1048576,1000,1.0,c++
9.0,843,1048576,1000,1.0,c++
10.0,872,1048576,1000,1.0,c++
11.0,906,1048576,1000,1.0,c++
12.0,955,1048576,1000,1.0,c++
13.0,990,1048576,1000,1.0,c++
14.0,967,1048576,1000,1.0,c++
15.0,969,1048576,1000,1.0,c++
16.0,901,1048576,1000,1.0,c++
17.0,852,1048576,1000,1.0,c++
18.0,914,1048576,1000,1.0,c++
19.0,839,1048576,1000,1.0,c++
20.0,858,1048576,1000,1.0,c++
21.0,830,1048576,1000,1.0,c++
22.0,827,1048576,1000,1.0,c++
23.0,911,1048576,1000,1.0,c++
24.0,818,1048576,1000,1.0,c++
25.0,729,1048576,1000,1.0,c++
26.0,774,1048576,1000,1.0,c++
27.0,762,1048576,1000,1.0,c++
28.0,881,1048576,1000,1.0,c++
29.0,884,1048576,1000,1.0,c++
30.0,715,1048576,1000,1.0,c++
0.0,0,2097152,1000,1.0,c++
1.0,458,2097152,1000,1.0,c++
2.0,460,2097152,1000,1.0,c++
3.0,460,2097152,1000,1.0,c++
4.0,418,2097152,1000,1.0,c++
5.0,411,2097152,1000,1.0,c++
6.0,409,2097152,1000,1.0,c++
7.0,404,2097152,1000,1.0,c++
8.0,433,2097152,1000,1.0,c++
9.0,464,2097152,1000,1.0,c++
10.0,455,2097152,1000,1.0,c++
11.0,464,2097152,1000,1.0,c++
12.0,420,2097152,1000,1.0,c++
13.0,405,2097152,1000,1.0,c++
14.0,406,2097152,1000,1.0,c++
15.0,408,2097152,1000,1.0,c++
16.0,457,2097152,1000,1.0,c++
17.0,468,2097152,1000,1.0,c++
18.0,466,2097152,1000,1.0,c++
19.0,458,2097152,1000,1.0,c++
20.0,421,2097152,1000,1.0,c++
21.0,408,2097152,1000,1.0,c++
22.0,405,2097152,1000,1.0,c++
23.0,399,2097152,1000,1.0,c++
24.0,441,2097152,1000,1.0,c++
25.0,469,2097152,1000,1.0,c++
26.0,437,2097152,1000,1.0,c++
27.0,444,2097152,1000,1.0,c++
28.0,383,2097152,1000,1.0,c++
29.0,380,2097152,1000,1.0,c++
30.0,283,2097152,1000,1.0,c++
0.0,0,4194304,1000,1.0,c++
1.0,221,4194304,1000,1.0,c++
2.0,232,4194304,1000,1.0,c++
3.0,226,4194304,1000,1.0,c++
4.0,173,4194304,1000,1.0,c++
5.0,177,4194304,1000,1.0,c++
6.0,170,4194304,1000,1.0,c++
7.0,177,4194304,1000,1.0,c++
8.0,192,4194304,1000,1.0,c++
9.0,212,4194304,1000,1.0,c++
10.0,223,4194304,1000,1.0,c++
11.0,220,4194304,1000,1.0,c++
12.0,188,4194304,1000,1.0,c++
13.0,177,4194304,1000,1.0,c++
14.0,185,4194304,1000,1.0,c++
15.0,190,4194304,1000,1.0,c++
16.0,229,4194304,1000,1.0,c++
17.0,206,4194304,1000,1.0,c++
18.0,229,4194304,1000,1.0,c++
19.0,229,4194304,1000,1.0,c++
20.0,192,4194304,1000,1.0,c++
21.0,189,4194304,1000,1.0,c++
22.0,192,4194304,1000,1.0,c++
23.0,195,4194304,1000,1.0,c++
24.0,228,4194304,1000,1.0,c++
25.0,228,4194304,1000,1.0,c++
26.0,226,4194304,1000,1.0,c++
27.0,222,4194304,1000,1.0,c++
28.0,192,4194304,1000,1.0,c++
29.0,196,4194304,1000,1.0,c++
30.0,141,4194304,1000,1.0,c++
0.0,0,8388608,1000,1.0,c++
1.0,113,8388608,1000,1.0,c++
2.0,117,8388608,1000,1.0,c++
3.0,114,8388608,1000,1.0,c++
4.0,113,8388608,1000,1.0,c++
5.0,116,8388608,1000,1.0,c++
6.0,116,8388608,1000,1.0,c++
7.0,118,8388608,1000,1.0,c++
8.0,114,8388608,1000,1.0,c++
9.0,112,8388608,1000,1.0,c++
10.0,116,8388608,1000,1.0,c++
11.0,112,8388608,1000,1.0,c++
12.0,91,8388608,1000,1.0,c++
13.0,80,8388608,1000,1.0,c++
14.0,85,8388608,1000,1.0,c++
15.0,87,8388608,1000,1.0,c++
16.0,59,8388608,1000,1.0,c++
17.0,53,8388608,1000,1.0,c++
18.0,52,8388608,1000,1.0,c++
19.0,73,8388608,1000,1.0,c++
20.0,72,8388608,1000,1.0,c++
21.0,76,8388608,1000,1.0,c++
22.0,75,8388608,1000,1.0,c++
23.0,73,8388608,1000,1.0,c++
24.0,78,8388608,1000,1.0,c++
25.0,84,8388608,1000,1.0,c++
26.0,89,8388608,1000,1.0,c++
27.0,80,8388608,1000,1.0,c++
28.0,94,8388608,1000,1.0,c++
29.0,102,8388608,1000,1.0,c++
30.0,70,8388608,1000,1.0,c++
0.0,0,16777216,1000,1.0,c++
1.0,55,16777216,1000,1.0,c++
2.0,55,16777216,1000,1.0,c++
3.0,56,16777216,1000,1.0,c++
4.0,57,16777216,1000,1.0,c++
5.0,57,16777216,1000,1.0,c++
6.0,56,16777216,1000,1.0,c++
7.0,55,16777216,1000,1.0,c++
8.0,53,16777216,1000,1.0,c++
9.0,54,16777216,1000,1.0,c++
10.0,56,16777216,1000,1.0,c++
11.0,54,16777216,1000,1.0,c++
12.0,44,16777216,1000,1.0,c++
13.0,42,16777216,1000,1.0,c++
14.0,41,16777216,1000,1.0,c++
15.0,49,16777216,1000,1.0,c++
16.0,49,16777216,1000,1.0,c++
17.0,44,16777216,1000,1.0,c++
18.0,49,16777216,1000,1.0,c++
19.0,46,16777216,1000,1.0,c++
20.0,53,16777216,1000,1.0,c++
21.0,55,16777216,1000,1.0,c++
22.0,55,16777216,1000,1.0,c++
23.0,55,16777216,1000,1.0,c++
24.0,53,16777216,1000,1.0,c++
25.0,47,16777216,1000,1.0,c++
26.0,43,16777216,1000,1.0,c++
27.0,46,16777216,1000,1.0,c++
28.0,53,16777216,1000,1.0,c++
29.0,57,16777216,1000,1.0,c++
30.0,45,16777216,1000,1.0,c++
0.0,0,33554432,1000,1.0,c++
1.0,16,33554432,1000,1.0,c++
2.0,15,33554432,1000,1.0,c++
3.0,15,33554432,1000,1.0,c++
4.0,17,33554432,1000,1.0,c++
5.0,22,33554432,1000,1.0,c++
6.0,21,33554432,1000,1.0,c++
7.0,21,33554432,1000,1.0,c++
8.0,17,33554432,1000,1.0,c++
9.0,14,33554432,1000,1.0,c++
10.0,15,33554432,1000,1.0,c++
11.0,17,33554432,1000,1.0,c++
12.0,19,33554432,1000,1.0,c++
13.0,19,33554432,1000,1.0,c++
14.0,20,33554432,1000,1.0,c++
15.0,21,33554432,1000,1.0,c++
16.0,22,33554432,1000,1.0,c++
17.0,22,33554432,1000,1.0,c++
18.0,21,33554432,1000,1.0,c++
19.0,22,33554432,1000,1.0,c++
20.0,21,33554432,1000,1.0,c++
21.0,21,33554432,1000,1.0,c++
22.0,20,33554432,1000,1.0,c++
23.0,21,33554432,1000,1.0,c++
24.0,21,33554432,1000,1.0,c++
25.0,21,33554432,1000,1.0,c++
26.0,20,33554432,1000,1.0,c++
27.0,18,33554432,1000,1.0,c++
28.0,15,33554432,1000,1.0,c++
29.0,15,33554432,1000,1.0,c++
30.0,11,33554432,1000,1.0,c++
0.0,0,67108864,1000,1.0,c++
1.0,9,67108864,1000,1.0,c++
2.0,8,67108864,1000,1.0,c++
3.0,10,67108864,1000,1.0,c++
4.0,11,67108864,1000,1.0,c++
5.0,11,67108864,1000,1.0,c++
6.0,11,67108864,1000,1.0,c++
7.0,10,67108864,1000,1.0,c++
8.0,12,67108864,1000,1.0,c++
9.0,12,67108864,1000,1.0,c++
10.0,11,67108864,1000,1.0,c++
11.0,10,67108864,1000,1.0,c++
12.0,12,67108864,1000,1.0,c++
13.0,10,67108864,1000,1.0,c++
14.0,11,67108864,1000,1.0,c++
15.0,9,67108864,1000,1.0,c++
16.0,6,67108864,1000,1.0,c++
17.0,9,67108864,1000,1.0,c++
18.0,7,67108864,1000,1.0,c++
19.0,9,67108864,1000,1.0,c++
20.0,8,67108864,1000,1.0,c++
21.0,8,67108864,1000,1.0,c++
22.0,9,67108864,1000,1.0,c++
23.0,10,67108864,1000,1.0,c++
24.0,11,67108864,1000,1.0,c++
25.0,11,67108864,1000,1.0,c++
26.0,11,67108864,1000,1.0,c++
27.0,11,67108864,1000,1.0,c++
28.0,11,67108864,1000,1.0,c++
29.0,10,67108864,1000,1.0,c++
30.0,10,67108864,1000,1.0,c++
0.0,0,134217728,1000,1.0,c++
1.0,7,134217728,1000,1.0,c++
2.0,7,134217728,1000,1.0,c++
3.0,7,134217728,1000,1.0,c++
4.0,7,134217728,1000,1.0,c++
5.0,6,134217728,1000,1.0,c++
6.0,7,134217728,1000,1.0,c++
7.0,7,134217728,1000,1.0,c++
8.0,6,134217728,1000,1.0,c++
9.0,7,134217728,1000,1.0,c++
10.0,6,134217728,1000,1.0,c++
11.0,7,134217728,1000,1.0,c++
12.0,5,134217728,1000,1.0,c++
13.0,5,134217728,1000,1.0,c++
14.0,5,134217728,1000,1.0,c++
15.0,6,134217728,1000,1.0,c++
16.0,6,134217728,1000,1.0,c++
17.0,6,134217728,1000,1.0,c++
18.0,5,134217728,1000,1.0,c++
19.0,7,134217728,1000,1.0,c++
20.0,6,134217728,1000,1.0,c++
21.0,7,134217728,1000,1.0,c++
22.0,7,134217728,1000,1.0,c++
23.0,6,134217728,1000,1.0,c++
24.0,7,134217728,1000,1.0,c++
25.0,7,134217728,1000,1.0,c++
26.0,7,134217728,1000,1.0,c++
27.0,6,134217728,1000,1.0,c++
28.0,7,134217728,1000,1.0,c++
29.0,7,134217728,1000,1.0,c++
30.0,6,134217728,1000,1.0,c++
0.0,0,268435456,1000,1.0,c++
1.0,3,268435456,1000,1.0,c++
2.0,3,268435456,1000,1.0,c++
3.0,3,268435456,1000,1.0,c++
4.0,3,268435456,1000,1.0,c++
5.0,2,268435456,1000,1.0,c++
6.0,4,268435456,1000,1.0,c++
7.0,2,268435456,1000,1.0,c++
8.0,4,268435456,1000,1.0,c++
9.0,3,268435456,1000,1.0,c++
10.0,4,268435456,1000,1.0,c++
11.0,4,268435456,1000,1.0,c++
12.0,4,268435456,1000,1.0,c++
13.0,3,268435456,1000,1.0,c++
14.0,3,268435456,1000,1.0,c++
15.0,4,268435456,1000,1.0,c++
16.0,3,268435456,1000,1.0,c++
17.0,4,268435456,1000,1.0,c++
18.0,3,268435456,1000,1.0,c++
19.0,3,268435456,1000,1.0,c++
20.0,2,268435456,1000,1.0,c++
21.0,3,268435456,1000,1.0,c++
22.0,3,268435456,1000,1.0,c++
23.0,2,268435456,1000,1.0,c++
24.0,4,268435456,1000,1.0,c++
25.0,2,268435456,1000,1.0,c++
26.0,4,268435456,1000,1.0,c++
27.0,3,268435456,1000,1.0,c++
28.0,3,268435456,1000,1.0,c++
29.0,3,268435456,1000,1.0,c++
30.0,4,268435456,1000,1.0,c++
